{
    "resource_group_name": "Demo-ABG",
    "location": "East US",
    "virtual_network_name": "Demo-ABG",
    "virtual_network_address_space": [
        "10.0.0.0/16"
    ],
    "subnet_name": "Demo-ABG",
    "subnet_address_prefixes": [
        "10.0.1.0/24"
    ],
    "public_ip_name": "true",
    "network_interface_name": "Demo-ABG",
    "vm_name": "Demo-ABG",
    "vm_admin_username": "testadmin",
    "vm_admin_password": "Password1234!",
    "image_publisher": "Canonical",
    "image_offer": "UbuntuServer",
    "image_sku": "16.04-LTS",
    "image_version": "latest",
    "os_disk_name": "my-vm-os-disk",
    "os_disk_caching": "ReadWrite",
    "os_disk_create_option": "FromImage",
    "os_disk_managed_disk_type": "Standard_LRS",
    "size": "Standard_DS1_v2",
    "key_name": "user1"
}