{ "ami": "ami-0f8ca728008ff5af4", 

  "instance_type": "t2.micro",

  "name": "single-instance",

  "key_name": "user1",

  "monitoring": "true",

  "vpc_security_group_ids": "sg-0a6a237fd75a777a9",

  "subnet_id": "subnet-0caff162e254ea794",

  "cpu_core_count": "",

  "cpu_threads_per_core": "",

  "cpu_credits" : "",

  "disable_api_termination": "",

  "kms_key_id": "",

  "snapshot_id": "",

  "source_dest_check": "",

  "create_spot_instance" :"",

  "iam_instance_profile" : "",

  "ebs_optimized": "",

  "enable_volume_tags": "",

  "hibernation": "",

  "ipv6_address_count": "",

  "ipv6_addresses" : "",

  "launch_template": "",

  "private_ip": "",

  "tenancy" : "",

  "Environment": "Test",

  "device_name": "/dev/sda1",

  "volume_type": "gp3",

  "volume_size": "8",

  "delete_on_termination": "true",

  "encrypted": "false",

  "iops": "100",

  "role-name" : "testing",
  
  "availability_zone": "ap-south-1a",

  "associate_public_ip_address": "true",

  "ApplicationName": "ABG",

  "ApplicationOwner": "ME",

  "EmailID": "xys.om",

  "Business": "None of ur",

  "target_group_arn": "null",

  "target_id": "null",

  "port": "0"

}
